<mxfile host="65bd71144e" modified="2021-02-19T13:13:23.444Z" agent="5.0 (Macintosh; Intel Mac OS X 10_15_7) AppleWebKit/537.36 (KHTML, like Gecko) Code/1.53.2 Chrome/87.0.4280.141 Electron/11.2.1 Safari/537.36" etag="6c7h816kHdfawhEPt6qU" version="14.2.4" type="embed">
    <diagram id="R2lEEEUBdFMjLlhIrx00" name="Page-1">
        <mxGraphModel dx="1393" dy="281" grid="0" gridSize="10" guides="1" tooltips="1" connect="1" arrows="1" fold="1" page="1" pageScale="1" pageWidth="850" pageHeight="1100" math="0" shadow="0" extFonts="Permanent Marker^https://fonts.googleapis.com/css?family=Permanent+Marker">
            <root>
                <mxCell id="0"/>
                <mxCell id="1" parent="0"/>
                <mxCell id="MrKeaLSAkNULbjgnrAg4-1" value="Meeting" style="swimlane;fillColor=#f8cecc;strokeColor=#b85450;" parent="1" vertex="1">
                    <mxGeometry x="47" y="71" width="380" height="252" as="geometry"/>
                </mxCell>
                <mxCell id="MrKeaLSAkNULbjgnrAg4-2" value="id " style="text;strokeColor=none;fillColor=none;align=left;verticalAlign=top;spacingLeft=4;spacingRight=4;overflow=hidden;rotatable=0;points=[[0,0.5],[1,0.5]];portConstraint=eastwest;" parent="MrKeaLSAkNULbjgnrAg4-1" vertex="1">
                    <mxGeometry x="9" y="34" width="60" height="26" as="geometry"/>
                </mxCell>
                <mxCell id="MrKeaLSAkNULbjgnrAg4-3" value="StartDate" style="text;strokeColor=none;fillColor=none;align=left;verticalAlign=top;spacingLeft=4;spacingRight=4;overflow=hidden;rotatable=0;points=[[0,0.5],[1,0.5]];portConstraint=eastwest;" parent="MrKeaLSAkNULbjgnrAg4-1" vertex="1">
                    <mxGeometry x="9" y="53" width="153" height="26" as="geometry"/>
                </mxCell>
                <mxCell id="MrKeaLSAkNULbjgnrAg4-4" value="endDate" style="text;strokeColor=none;fillColor=none;align=left;verticalAlign=top;spacingLeft=4;spacingRight=4;overflow=hidden;rotatable=0;points=[[0,0.5],[1,0.5]];portConstraint=eastwest;" parent="MrKeaLSAkNULbjgnrAg4-1" vertex="1">
                    <mxGeometry x="9" y="73" width="170" height="26" as="geometry"/>
                </mxCell>
                <mxCell id="MrKeaLSAkNULbjgnrAg4-5" value="type - [SD, MD, SDR, MDR]" style="text;strokeColor=none;fillColor=none;align=left;verticalAlign=top;spacingLeft=4;spacingRight=4;overflow=hidden;rotatable=0;points=[[0,0.5],[1,0.5]];portConstraint=eastwest;" parent="MrKeaLSAkNULbjgnrAg4-1" vertex="1">
                    <mxGeometry x="9" y="94" width="359" height="26" as="geometry"/>
                </mxCell>
                <mxCell id="MrKeaLSAkNULbjgnrAg4-6" value="recurringFrequency " style="text;strokeColor=#6c8ebf;fillColor=#dae8fc;align=left;verticalAlign=top;spacingLeft=4;spacingRight=4;overflow=hidden;rotatable=0;points=[[0,0.5],[1,0.5]];portConstraint=eastwest;" parent="MrKeaLSAkNULbjgnrAg4-1" vertex="1">
                    <mxGeometry x="13.5" y="120" width="359" height="26" as="geometry"/>
                </mxCell>
                <mxCell id="MrKeaLSAkNULbjgnrAg4-12" value="createdBy" style="text;strokeColor=none;fillColor=none;align=left;verticalAlign=top;spacingLeft=4;spacingRight=4;overflow=hidden;rotatable=0;points=[[0,0.5],[1,0.5]];portConstraint=eastwest;" parent="MrKeaLSAkNULbjgnrAg4-1" vertex="1">
                    <mxGeometry x="13.5" y="151" width="357" height="26" as="geometry"/>
                </mxCell>
                <mxCell id="26" value="company" style="text;strokeColor=none;fillColor=red;align=left;verticalAlign=top;spacingLeft=4;spacingRight=4;overflow=hidden;rotatable=0;points=[[0,0.5],[1,0.5]];portConstraint=eastwest;" parent="MrKeaLSAkNULbjgnrAg4-1" vertex="1">
                    <mxGeometry x="13.5" y="179" width="350" height="26" as="geometry"/>
                </mxCell>
                <mxCell id="31" value="meetingSchedules" style="text;strokeColor=#6c8ebf;fillColor=#dae8fc;align=left;verticalAlign=top;spacingLeft=4;spacingRight=4;overflow=hidden;rotatable=0;points=[[0,0.5],[1,0.5]];portConstraint=eastwest;" vertex="1" parent="MrKeaLSAkNULbjgnrAg4-1">
                    <mxGeometry x="9" y="216" width="359" height="26" as="geometry"/>
                </mxCell>
                <mxCell id="MrKeaLSAkNULbjgnrAg4-9" value="" style="edgeStyle=orthogonalEdgeStyle;rounded=0;orthogonalLoop=1;jettySize=auto;html=1;entryX=0;entryY=0.5;entryDx=0;entryDy=0;" parent="1" source="MrKeaLSAkNULbjgnrAg4-6" target="MrKeaLSAkNULbjgnrAg4-42" edge="1">
                    <mxGeometry relative="1" as="geometry">
                        <mxPoint x="564" y="226.10000000000002" as="targetPoint"/>
                    </mxGeometry>
                </mxCell>
                <mxCell id="MrKeaLSAkNULbjgnrAg4-16" value="MeetingSchedules" style="swimlane;fillColor=#e1d5e7;strokeColor=#9673a6;" parent="1" vertex="1">
                    <mxGeometry x="960" y="339" width="380" height="442" as="geometry"/>
                </mxCell>
                <mxCell id="MrKeaLSAkNULbjgnrAg4-17" value="id " style="text;strokeColor=none;fillColor=none;align=left;verticalAlign=top;spacingLeft=4;spacingRight=4;overflow=hidden;rotatable=0;points=[[0,0.5],[1,0.5]];portConstraint=eastwest;" parent="MrKeaLSAkNULbjgnrAg4-16" vertex="1">
                    <mxGeometry x="9" y="34" width="60" height="26" as="geometry"/>
                </mxCell>
                <mxCell id="MrKeaLSAkNULbjgnrAg4-18" value="StartDate" style="text;strokeColor=none;fillColor=none;align=left;verticalAlign=top;spacingLeft=4;spacingRight=4;overflow=hidden;rotatable=0;points=[[0,0.5],[1,0.5]];portConstraint=eastwest;" parent="MrKeaLSAkNULbjgnrAg4-16" vertex="1">
                    <mxGeometry x="9" y="86" width="153" height="26" as="geometry"/>
                </mxCell>
                <mxCell id="MrKeaLSAkNULbjgnrAg4-19" value="endDate" style="text;strokeColor=none;fillColor=none;align=left;verticalAlign=top;spacingLeft=4;spacingRight=4;overflow=hidden;rotatable=0;points=[[0,0.5],[1,0.5]];portConstraint=eastwest;" parent="MrKeaLSAkNULbjgnrAg4-16" vertex="1">
                    <mxGeometry x="9" y="112" width="170" height="26" as="geometry"/>
                </mxCell>
                <mxCell id="MrKeaLSAkNULbjgnrAg4-23" value="createdBy" style="text;strokeColor=none;fillColor=none;align=left;verticalAlign=top;spacingLeft=4;spacingRight=4;overflow=hidden;rotatable=0;points=[[0,0.5],[1,0.5]];portConstraint=eastwest;" parent="MrKeaLSAkNULbjgnrAg4-16" vertex="1">
                    <mxGeometry x="9.75" y="138" width="357" height="26" as="geometry"/>
                </mxCell>
                <mxCell id="MrKeaLSAkNULbjgnrAg4-24" value="createdOn" style="text;strokeColor=none;fillColor=none;align=left;verticalAlign=top;spacingLeft=4;spacingRight=4;overflow=hidden;rotatable=0;points=[[0,0.5],[1,0.5]];portConstraint=eastwest;" parent="MrKeaLSAkNULbjgnrAg4-16" vertex="1">
                    <mxGeometry x="11.25" y="164" width="357" height="26" as="geometry"/>
                </mxCell>
                <mxCell id="MrKeaLSAkNULbjgnrAg4-26" value="status - [DRAFT, PUBLISHED, INPROGRESS, COMPLETED]" style="text;strokeColor=none;fillColor=none;align=left;verticalAlign=top;spacingLeft=4;spacingRight=4;overflow=hidden;rotatable=0;points=[[0,0.5],[1,0.5]];portConstraint=eastwest;" parent="MrKeaLSAkNULbjgnrAg4-16" vertex="1">
                    <mxGeometry x="11.25" y="222" width="350" height="26" as="geometry"/>
                </mxCell>
                <mxCell id="MrKeaLSAkNULbjgnrAg4-48" value="meetingId" style="text;strokeColor=#d6b656;fillColor=#fff2cc;align=left;verticalAlign=top;spacingLeft=4;spacingRight=4;overflow=hidden;rotatable=0;points=[[0,0.5],[1,0.5]];portConstraint=eastwest;" parent="MrKeaLSAkNULbjgnrAg4-16" vertex="1">
                    <mxGeometry x="10.25" y="58" width="356.75" height="26" as="geometry"/>
                </mxCell>
                <mxCell id="MrKeaLSAkNULbjgnrAg4-50" value="title" style="text;strokeColor=none;fillColor=none;align=left;verticalAlign=top;spacingLeft=4;spacingRight=4;overflow=hidden;rotatable=0;points=[[0,0.5],[1,0.5]];portConstraint=eastwest;" parent="MrKeaLSAkNULbjgnrAg4-16" vertex="1">
                    <mxGeometry x="15.25" y="248" width="350" height="26" as="geometry"/>
                </mxCell>
                <mxCell id="MrKeaLSAkNULbjgnrAg4-51" value="description" style="text;strokeColor=none;fillColor=none;align=left;verticalAlign=top;spacingLeft=4;spacingRight=4;overflow=hidden;rotatable=0;points=[[0,0.5],[1,0.5]];portConstraint=eastwest;" parent="MrKeaLSAkNULbjgnrAg4-16" vertex="1">
                    <mxGeometry x="16.75" y="274" width="350" height="26" as="geometry"/>
                </mxCell>
                <mxCell id="MrKeaLSAkNULbjgnrAg4-52" value="location" style="text;strokeColor=#6c8ebf;fillColor=#dae8fc;align=left;verticalAlign=top;spacingLeft=4;spacingRight=4;overflow=hidden;rotatable=0;points=[[0,0.5],[1,0.5]];portConstraint=eastwest;" parent="MrKeaLSAkNULbjgnrAg4-16" vertex="1">
                    <mxGeometry x="15" y="300" width="350" height="26" as="geometry"/>
                </mxCell>
                <mxCell id="MrKeaLSAkNULbjgnrAg4-57" value="attendees" style="text;strokeColor=#6c8ebf;fillColor=#dae8fc;align=left;verticalAlign=top;spacingLeft=4;spacingRight=4;overflow=hidden;rotatable=0;points=[[0,0.5],[1,0.5]];portConstraint=eastwest;" parent="MrKeaLSAkNULbjgnrAg4-16" vertex="1">
                    <mxGeometry x="13.629999999999995" y="334" width="350" height="26" as="geometry"/>
                </mxCell>
                <mxCell id="MrKeaLSAkNULbjgnrAg4-119" value="preperationPromts" style="text;strokeColor=#6c8ebf;fillColor=#dae8fc;align=left;verticalAlign=top;spacingLeft=4;spacingRight=4;overflow=hidden;rotatable=0;points=[[0,0.5],[1,0.5]];portConstraint=eastwest;" parent="MrKeaLSAkNULbjgnrAg4-16" vertex="1">
                    <mxGeometry x="16.75" y="193" width="350" height="26" as="geometry"/>
                </mxCell>
                <mxCell id="MrKeaLSAkNULbjgnrAg4-120" value="lastUpdated" style="text;strokeColor=none;fillColor=none;align=left;verticalAlign=top;spacingLeft=4;spacingRight=4;overflow=hidden;rotatable=0;points=[[0,0.5],[1,0.5]];portConstraint=eastwest;" parent="MrKeaLSAkNULbjgnrAg4-16" vertex="1">
                    <mxGeometry x="11.94" y="369" width="357" height="26" as="geometry"/>
                </mxCell>
                <mxCell id="22" value="boardPackage" style="text;strokeColor=#6c8ebf;fillColor=#dae8fc;align=left;verticalAlign=top;spacingLeft=4;spacingRight=4;overflow=hidden;rotatable=0;points=[[0,0.5],[1,0.5]];portConstraint=eastwest;" parent="MrKeaLSAkNULbjgnrAg4-16" vertex="1">
                    <mxGeometry x="11.559999999999995" y="397" width="357" height="26" as="geometry"/>
                </mxCell>
                <mxCell id="MrKeaLSAkNULbjgnrAg4-42" value="recurringFrequency" style="swimlane;fillColor=#e1d5e7;strokeColor=#9673a6;" parent="1" vertex="1">
                    <mxGeometry x="564" y="150" width="263" height="86" as="geometry"/>
                </mxCell>
                <mxCell id="MrKeaLSAkNULbjgnrAg4-45" value="&lt;span&gt;units : [DAYS, WEEKS, MONTHS, YEARS],&lt;/span&gt;&lt;br&gt;&lt;span&gt;qty&amp;nbsp;&lt;br&gt;recurringLimit&lt;br&gt;&lt;/span&gt;" style="text;html=1;align=left;verticalAlign=middle;resizable=0;points=[];autosize=1;spacingLeft=3;" parent="MrKeaLSAkNULbjgnrAg4-42" vertex="1">
                    <mxGeometry x="10" y="30" width="246" height="46" as="geometry"/>
                </mxCell>
                <mxCell id="MrKeaLSAkNULbjgnrAg4-53" value="location" style="swimlane;fillColor=#e1d5e7;strokeColor=#9673a6;" parent="1" vertex="1">
                    <mxGeometry x="1437" y="635" width="263" height="68" as="geometry"/>
                </mxCell>
                <mxCell id="MrKeaLSAkNULbjgnrAg4-54" value="&lt;span&gt;name&lt;/span&gt;&lt;br&gt;clickToActionURL" style="text;html=1;align=left;verticalAlign=middle;resizable=0;points=[];autosize=1;spacingLeft=3;" parent="MrKeaLSAkNULbjgnrAg4-53" vertex="1">
                    <mxGeometry x="10" y="28" width="106" height="32" as="geometry"/>
                </mxCell>
                <mxCell id="MrKeaLSAkNULbjgnrAg4-56" style="edgeStyle=orthogonalEdgeStyle;rounded=0;orthogonalLoop=1;jettySize=auto;html=1;exitX=1;exitY=0.5;exitDx=0;exitDy=0;entryX=0;entryY=0.25;entryDx=0;entryDy=0;" parent="1" source="MrKeaLSAkNULbjgnrAg4-52" target="MrKeaLSAkNULbjgnrAg4-53" edge="1">
                    <mxGeometry relative="1" as="geometry"/>
                </mxCell>
                <mxCell id="MrKeaLSAkNULbjgnrAg4-58" value="attendees: list&lt;Attendee&gt;" style="swimlane;fillColor=#e1d5e7;strokeColor=#9673a6;verticalAlign=middle;" parent="1" vertex="1">
                    <mxGeometry x="587" y="709" width="271" height="218" as="geometry"/>
                </mxCell>
                <mxCell id="MrKeaLSAkNULbjgnrAg4-61" value="username , email&lt;br&gt;photoUrl&lt;br&gt;status: [CNF, REJ, WFR]&lt;br&gt;access : [LIMITED, FULL]" style="whiteSpace=wrap;html=1;align=left;spacingLeft=10;verticalAlign=top;" parent="MrKeaLSAkNULbjgnrAg4-58" vertex="1">
                    <mxGeometry x="8" y="28.25" width="254" height="89.75" as="geometry"/>
                </mxCell>
                <mxCell id="MrKeaLSAkNULbjgnrAg4-66" value="username, email&lt;br&gt;photoUrl&lt;br&gt;status: [CNF, REJ, WFR]&lt;br&gt;access : [LIMITED, FULL]" style="whiteSpace=wrap;html=1;align=left;spacingLeft=10;verticalAlign=top;" parent="MrKeaLSAkNULbjgnrAg4-58" vertex="1">
                    <mxGeometry x="8" y="127" width="254" height="85" as="geometry"/>
                </mxCell>
                <mxCell id="13" value="agendasInvitedTo" style="text;strokeColor=#6c8ebf;fillColor=#dae8fc;align=left;verticalAlign=middle;spacingLeft=4;spacingRight=4;overflow=hidden;rotatable=0;points=[[0,0.5],[1,0.5]];portConstraint=eastwest;" parent="MrKeaLSAkNULbjgnrAg4-58" vertex="1">
                    <mxGeometry x="15" y="92" width="233" height="20" as="geometry"/>
                </mxCell>
                <mxCell id="14" value="agendasInvitedTo" style="text;align=left;verticalAlign=middle;spacingLeft=4;spacingRight=4;overflow=hidden;rotatable=0;points=[[0,0.5],[1,0.5]];portConstraint=eastwest;" parent="MrKeaLSAkNULbjgnrAg4-58" vertex="1">
                    <mxGeometry x="15" y="188" width="233" height="20" as="geometry"/>
                </mxCell>
                <mxCell id="MrKeaLSAkNULbjgnrAg4-60" style="edgeStyle=orthogonalEdgeStyle;rounded=0;orthogonalLoop=1;jettySize=auto;html=1;exitX=0;exitY=0.5;exitDx=0;exitDy=0;entryX=0.5;entryY=0;entryDx=0;entryDy=0;" parent="1" source="MrKeaLSAkNULbjgnrAg4-57" target="MrKeaLSAkNULbjgnrAg4-58" edge="1">
                    <mxGeometry relative="1" as="geometry"/>
                </mxCell>
                <mxCell id="MrKeaLSAkNULbjgnrAg4-80" value="Agenda" style="swimlane;fillColor=#f8cecc;strokeColor=#b85450;" parent="1" vertex="1">
                    <mxGeometry x="1178" y="1097" width="380" height="330" as="geometry"/>
                </mxCell>
                <mxCell id="MrKeaLSAkNULbjgnrAg4-81" value="id " style="text;strokeColor=none;fillColor=none;align=left;verticalAlign=top;spacingLeft=4;spacingRight=4;overflow=hidden;rotatable=0;points=[[0,0.5],[1,0.5]];portConstraint=eastwest;" parent="MrKeaLSAkNULbjgnrAg4-80" vertex="1">
                    <mxGeometry x="10.5" y="31" width="60" height="26" as="geometry"/>
                </mxCell>
                <mxCell id="MrKeaLSAkNULbjgnrAg4-82" value="startTime" style="text;strokeColor=none;fillColor=none;align=left;verticalAlign=top;spacingLeft=4;spacingRight=4;overflow=hidden;rotatable=0;points=[[0,0.5],[1,0.5]];portConstraint=eastwest;" parent="MrKeaLSAkNULbjgnrAg4-80" vertex="1">
                    <mxGeometry x="10.5" y="49" width="153" height="26" as="geometry"/>
                </mxCell>
                <mxCell id="MrKeaLSAkNULbjgnrAg4-83" value="endTime" style="text;strokeColor=none;fillColor=none;align=left;verticalAlign=top;spacingLeft=4;spacingRight=4;overflow=hidden;rotatable=0;points=[[0,0.5],[1,0.5]];portConstraint=eastwest;" parent="MrKeaLSAkNULbjgnrAg4-80" vertex="1">
                    <mxGeometry x="10.5" y="66" width="170" height="26" as="geometry"/>
                </mxCell>
                <mxCell id="MrKeaLSAkNULbjgnrAg4-84" value="assignees" style="text;strokeColor=#6c8ebf;fillColor=#dae8fc;align=left;verticalAlign=top;spacingLeft=4;spacingRight=4;overflow=hidden;rotatable=0;points=[[0,0.5],[1,0.5]];portConstraint=eastwest;" parent="MrKeaLSAkNULbjgnrAg4-80" vertex="1">
                    <mxGeometry x="11" y="189" width="359" height="26" as="geometry"/>
                </mxCell>
                <mxCell id="MrKeaLSAkNULbjgnrAg4-85" value="presenters" style="text;strokeColor=#6c8ebf;fillColor=#dae8fc;align=left;verticalAlign=top;spacingLeft=4;spacingRight=4;overflow=hidden;rotatable=0;points=[[0,0.5],[1,0.5]];portConstraint=eastwest;" parent="MrKeaLSAkNULbjgnrAg4-80" vertex="1">
                    <mxGeometry x="11.5" y="225" width="359" height="26" as="geometry"/>
                </mxCell>
                <mxCell id="MrKeaLSAkNULbjgnrAg4-86" value="tags" style="text;strokeColor=#6c8ebf;fillColor=#dae8fc;align=left;verticalAlign=top;spacingLeft=4;spacingRight=4;overflow=hidden;rotatable=0;points=[[0,0.5],[1,0.5]];portConstraint=eastwest;" parent="MrKeaLSAkNULbjgnrAg4-80" vertex="1">
                    <mxGeometry x="10.5" y="260" width="360" height="26" as="geometry"/>
                </mxCell>
                <mxCell id="MrKeaLSAkNULbjgnrAg4-90" value="title" style="text;strokeColor=none;fillColor=none;align=left;verticalAlign=top;spacingLeft=4;spacingRight=4;overflow=hidden;rotatable=0;points=[[0,0.5],[1,0.5]];portConstraint=eastwest;" parent="MrKeaLSAkNULbjgnrAg4-80" vertex="1">
                    <mxGeometry x="11.5" y="84" width="170" height="26" as="geometry"/>
                </mxCell>
                <mxCell id="MrKeaLSAkNULbjgnrAg4-91" value="description" style="text;strokeColor=none;fillColor=none;align=left;verticalAlign=top;spacingLeft=4;spacingRight=4;overflow=hidden;rotatable=0;points=[[0,0.5],[1,0.5]];portConstraint=eastwest;" parent="MrKeaLSAkNULbjgnrAg4-80" vertex="1">
                    <mxGeometry x="11.5" y="102" width="170" height="26" as="geometry"/>
                </mxCell>
                <mxCell id="MrKeaLSAkNULbjgnrAg4-92" value="files" style="text;strokeColor=#6c8ebf;fillColor=#dae8fc;align=left;verticalAlign=top;spacingLeft=4;spacingRight=4;overflow=hidden;rotatable=0;points=[[0,0.5],[1,0.5]];portConstraint=eastwest;" parent="MrKeaLSAkNULbjgnrAg4-80" vertex="1">
                    <mxGeometry x="9.5" y="295" width="360" height="26" as="geometry"/>
                </mxCell>
                <mxCell id="2" value="notes" style="text;strokeColor=#6c8ebf;fillColor=#dae8fc;align=left;verticalAlign=top;spacingLeft=4;spacingRight=4;overflow=hidden;rotatable=0;points=[[0,0.5],[1,0.5]];portConstraint=eastwest;" parent="MrKeaLSAkNULbjgnrAg4-80" vertex="1">
                    <mxGeometry x="11.5" y="153" width="359" height="26" as="geometry"/>
                </mxCell>
                <mxCell id="11" value="meetingId" style="text;strokeColor=none;fillColor=none;align=left;verticalAlign=top;spacingLeft=4;spacingRight=4;overflow=hidden;rotatable=0;points=[[0,0.5],[1,0.5]];portConstraint=eastwest;" parent="MrKeaLSAkNULbjgnrAg4-80" vertex="1">
                    <mxGeometry x="12.5" y="122" width="170" height="26" as="geometry"/>
                </mxCell>
                <mxCell id="MrKeaLSAkNULbjgnrAg4-93" value="asignees : list&lt;Assignee&gt;" style="swimlane;fillColor=#e1d5e7;strokeColor=#9673a6;" parent="1" vertex="1">
                    <mxGeometry x="1700" y="1307" width="271" height="240" as="geometry"/>
                </mxCell>
                <mxCell id="MrKeaLSAkNULbjgnrAg4-94" value="username&lt;br&gt;email&lt;br&gt;photoUrl&lt;br&gt;status&lt;br&gt;assignedBy&lt;br&gt;assignedOn" style="whiteSpace=wrap;html=1;align=left;spacingLeft=10;verticalAlign=top;" parent="MrKeaLSAkNULbjgnrAg4-93" vertex="1">
                    <mxGeometry x="8" y="28.25" width="254" height="100.75" as="geometry"/>
                </mxCell>
                <mxCell id="MrKeaLSAkNULbjgnrAg4-117" value="username&lt;br&gt;email&lt;br&gt;photoUrl&lt;br&gt;status&lt;br&gt;assignedBy&lt;br&gt;assignedOn" style="whiteSpace=wrap;html=1;align=left;spacingLeft=10;verticalAlign=top;" parent="MrKeaLSAkNULbjgnrAg4-93" vertex="1">
                    <mxGeometry x="8.5" y="134" width="254" height="100.75" as="geometry"/>
                </mxCell>
                <mxCell id="MrKeaLSAkNULbjgnrAg4-97" style="edgeStyle=orthogonalEdgeStyle;rounded=0;orthogonalLoop=1;jettySize=auto;html=1;exitX=1;exitY=0.5;exitDx=0;exitDy=0;entryX=0.5;entryY=0;entryDx=0;entryDy=0;" parent="1" source="MrKeaLSAkNULbjgnrAg4-84" target="MrKeaLSAkNULbjgnrAg4-93" edge="1">
                    <mxGeometry relative="1" as="geometry"/>
                </mxCell>
                <mxCell id="MrKeaLSAkNULbjgnrAg4-98" value="presenters : list&lt;Presenter&gt;" style="swimlane;fillColor=#e1d5e7;strokeColor=#9673a6;" parent="1" vertex="1">
                    <mxGeometry x="865" y="1458" width="271" height="171" as="geometry"/>
                </mxCell>
                <mxCell id="MrKeaLSAkNULbjgnrAg4-111" value="username&lt;br&gt;email&lt;br&gt;photoUrl" style="whiteSpace=wrap;html=1;align=left;spacingLeft=10;verticalAlign=top;" parent="MrKeaLSAkNULbjgnrAg4-98" vertex="1">
                    <mxGeometry x="8.5" y="30" width="254" height="56" as="geometry"/>
                </mxCell>
                <mxCell id="MrKeaLSAkNULbjgnrAg4-116" value="username&lt;br&gt;email&lt;br&gt;photoUrl" style="whiteSpace=wrap;html=1;align=left;spacingLeft=10;verticalAlign=top;" parent="MrKeaLSAkNULbjgnrAg4-98" vertex="1">
                    <mxGeometry x="8.5" y="97" width="254" height="56" as="geometry"/>
                </mxCell>
                <mxCell id="MrKeaLSAkNULbjgnrAg4-101" style="edgeStyle=orthogonalEdgeStyle;rounded=0;orthogonalLoop=1;jettySize=auto;html=1;exitX=0;exitY=0.5;exitDx=0;exitDy=0;" parent="1" source="MrKeaLSAkNULbjgnrAg4-85" target="MrKeaLSAkNULbjgnrAg4-98" edge="1">
                    <mxGeometry relative="1" as="geometry"/>
                </mxCell>
                <mxCell id="MrKeaLSAkNULbjgnrAg4-102" value="tags : list&lt;String&gt;" style="swimlane;fillColor=#e1d5e7;strokeColor=#9673a6;" parent="1" vertex="1">
                    <mxGeometry x="1522" y="1594" width="271" height="99" as="geometry"/>
                </mxCell>
                <mxCell id="MrKeaLSAkNULbjgnrAg4-103" value="tagName" style="whiteSpace=wrap;html=1;align=left;spacingLeft=10;verticalAlign=top;" parent="MrKeaLSAkNULbjgnrAg4-102" vertex="1">
                    <mxGeometry x="8" y="28.25" width="254" height="26.75" as="geometry"/>
                </mxCell>
                <mxCell id="MrKeaLSAkNULbjgnrAg4-104" value="tagName" style="whiteSpace=wrap;html=1;align=left;spacingLeft=10;verticalAlign=top;" parent="MrKeaLSAkNULbjgnrAg4-102" vertex="1">
                    <mxGeometry x="8.5" y="60" width="254" height="26.75" as="geometry"/>
                </mxCell>
                <mxCell id="MrKeaLSAkNULbjgnrAg4-105" style="edgeStyle=orthogonalEdgeStyle;rounded=0;orthogonalLoop=1;jettySize=auto;html=1;exitX=1;exitY=0.5;exitDx=0;exitDy=0;" parent="1" source="MrKeaLSAkNULbjgnrAg4-86" target="MrKeaLSAkNULbjgnrAg4-102" edge="1">
                    <mxGeometry relative="1" as="geometry"/>
                </mxCell>
                <mxCell id="MrKeaLSAkNULbjgnrAg4-106" value="files : list&lt;File&gt;" style="swimlane;fillColor=#e1d5e7;strokeColor=#9673a6;" parent="1" vertex="1">
                    <mxGeometry x="1178" y="1559" width="271" height="129" as="geometry"/>
                </mxCell>
                <mxCell id="MrKeaLSAkNULbjgnrAg4-107" value="fileName&lt;br&gt;fileUrl" style="whiteSpace=wrap;html=1;align=left;spacingLeft=10;verticalAlign=top;" parent="MrKeaLSAkNULbjgnrAg4-106" vertex="1">
                    <mxGeometry x="8" y="28.25" width="254" height="41.75" as="geometry"/>
                </mxCell>
                <mxCell id="MrKeaLSAkNULbjgnrAg4-118" value="fileName&lt;br&gt;fileUrl" style="whiteSpace=wrap;html=1;align=left;spacingLeft=10;verticalAlign=top;" parent="MrKeaLSAkNULbjgnrAg4-106" vertex="1">
                    <mxGeometry x="8.5" y="77" width="254" height="41.75" as="geometry"/>
                </mxCell>
                <mxCell id="MrKeaLSAkNULbjgnrAg4-109" style="edgeStyle=orthogonalEdgeStyle;rounded=0;orthogonalLoop=1;jettySize=auto;html=1;exitX=0.35;exitY=1;exitDx=0;exitDy=0;entryX=0.5;entryY=0;entryDx=0;entryDy=0;exitPerimeter=0;" parent="1" source="MrKeaLSAkNULbjgnrAg4-92" target="MrKeaLSAkNULbjgnrAg4-106" edge="1">
                    <mxGeometry relative="1" as="geometry"/>
                </mxCell>
                <mxCell id="MrKeaLSAkNULbjgnrAg4-121" value="preperationPrompts : list&lt;PreperationPromt&gt;" style="swimlane;fillColor=#e1d5e7;strokeColor=#9673a6;" parent="1" vertex="1">
                    <mxGeometry x="1437" y="442" width="367" height="145" as="geometry"/>
                </mxCell>
                <mxCell id="25" value="&lt;p style=&quot;line-height: 100%&quot;&gt;&lt;span&gt;need to discuss&lt;/span&gt;&lt;br&gt;&lt;/p&gt;" style="ellipse;shape=cloud;whiteSpace=wrap;html=1;align=center;verticalAlign=top;spacingLeft=4;spacingRight=4;fillColor=#a20025;strokeColor=#6F0000;fontColor=#ffffff;" parent="MrKeaLSAkNULbjgnrAg4-121" vertex="1">
                    <mxGeometry x="67" y="52" width="223" height="52" as="geometry"/>
                </mxCell>
                <mxCell id="MrKeaLSAkNULbjgnrAg4-123" style="edgeStyle=orthogonalEdgeStyle;rounded=0;orthogonalLoop=1;jettySize=auto;html=1;exitX=1;exitY=0.5;exitDx=0;exitDy=0;entryX=0;entryY=0.25;entryDx=0;entryDy=0;" parent="1" source="MrKeaLSAkNULbjgnrAg4-119" target="MrKeaLSAkNULbjgnrAg4-121" edge="1">
                    <mxGeometry relative="1" as="geometry"/>
                </mxCell>
                <mxCell id="3" value="notes : list&lt;Note&gt;" style="swimlane;fillColor=#e1d5e7;strokeColor=#9673a6;" parent="1" vertex="1">
                    <mxGeometry x="1688" y="1017" width="271" height="249.8800000000001" as="geometry"/>
                </mxCell>
                <mxCell id="4" value="username&lt;br&gt;email&lt;br&gt;photoUrl&lt;br&gt;visibility - [PUB, PRV]&lt;br&gt;createdOn&lt;br&gt;note&lt;br&gt;notetype" style="whiteSpace=wrap;html=1;align=left;spacingLeft=10;verticalAlign=top;" parent="3" vertex="1">
                    <mxGeometry x="8" y="27.25" width="254" height="109.75" as="geometry"/>
                </mxCell>
                <mxCell id="40" value="username&lt;br&gt;email&lt;br&gt;photoUrl&lt;br&gt;visibility - [PUB, PRV]&lt;br&gt;createdOn&lt;br&gt;note&lt;br&gt;notetype" style="whiteSpace=wrap;html=1;align=left;spacingLeft=10;verticalAlign=top;" vertex="1" parent="3">
                    <mxGeometry x="8" y="140.1300000000001" width="254" height="109.75" as="geometry"/>
                </mxCell>
                <mxCell id="8" style="edgeStyle=orthogonalEdgeStyle;rounded=0;orthogonalLoop=1;jettySize=auto;html=1;exitX=1;exitY=0.5;exitDx=0;exitDy=0;entryX=-0.002;entryY=0.063;entryDx=0;entryDy=0;entryPerimeter=0;" parent="1" source="2" target="3" edge="1">
                    <mxGeometry relative="1" as="geometry"/>
                </mxCell>
                <mxCell id="15" value="agendas : list&lt;Agenda&gt;" style="swimlane;fillColor=#e1d5e7;strokeColor=#9673a6;" parent="1" vertex="1">
                    <mxGeometry x="273" y="918" width="275" height="131" as="geometry"/>
                </mxCell>
                <mxCell id="16" value="&lt;br&gt;agendaName" style="whiteSpace=wrap;html=1;align=left;spacingLeft=10;verticalAlign=top;" parent="15" vertex="1">
                    <mxGeometry x="8.5" y="30" width="254" height="41" as="geometry"/>
                </mxCell>
                <mxCell id="19" value="agendaId&lt;br&gt;agendaName" style="whiteSpace=wrap;html=1;align=left;spacingLeft=10;verticalAlign=top;" parent="15" vertex="1">
                    <mxGeometry x="8.5" y="77" width="254" height="41" as="geometry"/>
                </mxCell>
                <mxCell id="20" value="agendaId" style="text;strokeColor=#d6b656;fillColor=#fff2cc;align=left;verticalAlign=middle;spacingLeft=4;spacingRight=4;overflow=hidden;rotatable=0;points=[[0,0.5],[1,0.5]];portConstraint=eastwest;" parent="15" vertex="1">
                    <mxGeometry x="17" y="35" width="237" height="16" as="geometry"/>
                </mxCell>
                <mxCell id="18" style="edgeStyle=orthogonalEdgeStyle;rounded=0;orthogonalLoop=1;jettySize=auto;html=1;exitX=0;exitY=0.5;exitDx=0;exitDy=0;entryX=0.5;entryY=0;entryDx=0;entryDy=0;" parent="1" source="13" target="15" edge="1">
                    <mxGeometry relative="1" as="geometry"/>
                </mxCell>
                <mxCell id="21" style="edgeStyle=orthogonalEdgeStyle;rounded=0;orthogonalLoop=1;jettySize=auto;html=1;exitX=1;exitY=0.5;exitDx=0;exitDy=0;shape=link;entryX=0.432;entryY=0.004;entryDx=0;entryDy=0;entryPerimeter=0;" parent="1" source="20" target="MrKeaLSAkNULbjgnrAg4-80" edge="1">
                    <mxGeometry relative="1" as="geometry">
                        <mxPoint x="875.3333333333335" y="1151.666666666667" as="targetPoint"/>
                    </mxGeometry>
                </mxCell>
                <mxCell id="23" value="&lt;p style=&quot;line-height: 100%&quot;&gt;&lt;span&gt;need to discuss&lt;/span&gt;&lt;br&gt;&lt;/p&gt;" style="ellipse;shape=cloud;whiteSpace=wrap;html=1;align=center;verticalAlign=top;spacingLeft=4;spacingRight=4;fillColor=#a20025;strokeColor=#6F0000;fontColor=#ffffff;" parent="1" vertex="1">
                    <mxGeometry x="1406" y="803" width="223" height="52" as="geometry"/>
                </mxCell>
                <mxCell id="24" value="" style="rounded=0;orthogonalLoop=1;jettySize=auto;html=1;edgeStyle=entityRelationEdgeStyle;elbow=vertical;" parent="1" source="22" target="23" edge="1">
                    <mxGeometry relative="1" as="geometry"/>
                </mxCell>
                <mxCell id="30" style="edgeStyle=entityRelationEdgeStyle;rounded=0;orthogonalLoop=1;jettySize=auto;html=1;exitX=0.96;exitY=0.7;exitDx=0;exitDy=0;exitPerimeter=0;entryX=0;entryY=0.5;entryDx=0;entryDy=0;" parent="1" source="28" target="26" edge="1">
                    <mxGeometry relative="1" as="geometry"/>
                </mxCell>
                <mxCell id="28" value="&lt;p style=&quot;line-height: 100%&quot;&gt;&lt;span&gt;need to discuss&lt;/span&gt;&lt;br&gt;&lt;/p&gt;" style="ellipse;shape=cloud;whiteSpace=wrap;html=1;align=center;verticalAlign=top;spacingLeft=4;spacingRight=4;fillColor=#a20025;strokeColor=#6F0000;fontColor=#ffffff;" parent="1" vertex="1">
                    <mxGeometry x="-231" y="361" width="223" height="52" as="geometry"/>
                </mxCell>
                <mxCell id="32" style="edgeStyle=orthogonalEdgeStyle;rounded=0;orthogonalLoop=1;jettySize=auto;html=1;exitX=1;exitY=0.5;exitDx=0;exitDy=0;entryX=0.479;entryY=0.001;entryDx=0;entryDy=0;entryPerimeter=0;" edge="1" parent="1" source="31" target="33">
                    <mxGeometry relative="1" as="geometry">
                        <mxPoint x="538.8461538461538" y="440" as="targetPoint"/>
                    </mxGeometry>
                </mxCell>
                <mxCell id="33" value="meetingSchedules : list&lt;MeetingSchedules&gt;" style="swimlane;fillColor=#e1d5e7;strokeColor=#9673a6;verticalAlign=middle;" vertex="1" parent="1">
                    <mxGeometry x="490" y="328" width="271" height="218" as="geometry"/>
                </mxCell>
            </root>
        </mxGraphModel>
    </diagram>
</mxfile>